{
    "extends": [
        "tslint-config-standard",
        "tslint-config-prettier"
    ],
    "rules": {
        "variable-name": [
            true,
            "ban-keywords",
            "allow-leading-underscore"
        ],
        "strict-type-predicates": false
    }
}
