[       1.3136 sec]  Main | Looking for credentials MongoDB_master
[        2.8994 ms]  Main | Connecting to
    url     : 'mongodb://sa:edge5516789@localhost/admin'
    options : 
            poolSize            : 8
            autoReconnect       : true
            noDelay             : true
            forceServerObjectId : true
            ignoreUndefined     : true
            authSource          : 'admin'
[        5.8586 ms]  Main | Web server enabled on 8001
Error in log [server.ts]: [ [ 'InfluxDB credentials not found' ] ]
[         5.784 ms]  Main | cacheSetMembers wq_known_queues
[        2.4457 ms]  Main | Adding calls for os
[        0.0739 ms]  Main | Adding os_doGetServerInformation([])
[        0.0731 ms]  Main | Adding os_doExecuteJob(["user","job_id"])
[        0.0663 ms]  Main | Adding os_doCreateDailyJob(["title","workingFolder","scriptName","commandLineArgs"])
[        0.0644 ms]  Main | Adding os_doCreateHourlyJob(["title","workingFolder","scriptName","commandLineArgs"])
[        0.0563 ms]  Main | Adding os_doCreateOnetimeJob(["title","workingFolder","scriptName","commandLineArgs"])
[        0.0537 ms]  Main | Adding os_doCreateJob(["title","freqType","freqRate","workingFolder","scriptName","commandLineArgs","jobOwner","npm","=","null"])
[        0.0737 ms]  Main | Adding calls for code
[        0.0813 ms]  Main | Adding code_doRunCode(["user","category","name","userObject","params","executeOptions"])
[        0.0844 ms]  Main | Adding code_doListAvailableModules(["user","condition","=","null"])
[        0.0642 ms]  Main | Adding code_doSaveModuleNotes(["user","category","name","newNotes"])
[        0.0565 ms]  Main | Adding code_doSaveModuleLocal(["user","category","name","code"])
[        0.0539 ms]  Main | Adding code_doTestCaseAdd(["category","name","options","id"])
[        0.0528 ms]  Main | Adding code_doTestCaseRemove(["category","name","id"])
[        0.0516 ms]  Main | Adding code_doGetModuleLocal(["user","category","name"])
[        0.0771 ms]  Main | Adding calls for data
[         0.057 ms]  Main | Adding data_doSendChannelMessage(["channelName","message"])
[        0.0518 ms]  Main | Adding data_doTestFormAuth(["user"])
[        0.0511 ms]  Main | Adding data_doTestForm(["user","formData"])
[        0.0499 ms]  Main | Adding data_doRecordFile(["filename","obj"])
[        0.0497 ms]  Main | Adding data_doVerifySimpleIndex(["dataSet","tableName","keyField","indexType","isUnique"])
[         0.049 ms]  Main | Adding data_doFindNearby(["dataSet","path","centerLocation","miles","offset","limit"])
[        0.0502 ms]  Main | Adding data_doFindNearbyIds(["dataSet","path","centerLocation","miles","offset","limit"])
[        0.0544 ms]  Main | Adding data_doGetAllItems(["dataSet","path"])
[        0.0489 ms]  Main | Adding data_doGetItems(["dataSet","path","fieldList","sortOrder","offset","limit"])
[        0.0489 ms]  Main | Adding data_doGetItemsStream(["user","dataSet","path","fieldList","sortOrder","offset","limit"])
[         0.048 ms]  Main | Adding data_doGetItem(["dataSet","path"])
[        0.0476 ms]  Main | Adding data_doGetItemsIfNeeded(["user","dataSet","collection","idList"])
[        0.0469 ms]  Main | Adding data_doGetItemIfNewer(["dataSet","path","currentHash"])
[        0.0683 ms]  Main | Adding data_doAggregate(["dataSet","path","aggList"])
[        0.0482 ms]  Main | Adding data_doDeletePath(["dataSet","path"])
[        0.0496 ms]  Main | Adding data_doUpdatePathHigh(["dataSet","path","newData"])
[        0.0485 ms]  Main | Adding data_doUpdatePath(["dataSet","path","newData"])
[         0.048 ms]  Main | Adding data_doUpdatePathLow(["dataSet","path","newData"])
[        0.0485 ms]  Main | Adding data_doRemove(["dataSet","tableName","searchCondition"])
[        0.0479 ms]  Main | Adding data_doGetUpdatedStats(["dataSet"])
[        0.0484 ms]  Main | Adding data_doGetUniqueValues(["dataSet","path","matchCondition"])
[        0.0477 ms]  Main | Adding data_doAppendPath(["dataSet","path","newData"])
[        0.0727 ms]  Main | Adding calls for logs
[        0.0531 ms]  Main | Adding logs_doGetLatestJobs(["limit"])
[        0.0728 ms]  Main | Adding calls for stats
[        0.0538 ms]  Main | Adding stats_doWriteStatisticalData(["databaseName","categoryName","dataTags","dataFields"])
[        0.0497 ms]  Main | Adding stats_doGetMessageQueueStats([])
[        0.0518 ms]  Main | Adding stats_doGetStats(["intervalName","categoryName"])
[         0.049 ms]  Main | Adding stats_doAddStatsMany(["intervalName","categoryName","keys"])
[        0.0492 ms]  Main | Adding stats_doAddStats(["intervalName","categoryName","counterName","count","=","1"])
[        0.0798 ms]  Main | Adding calls for workqueue
[        0.0494 ms]  Main | Adding workqueue_doAddRecordDelayed(["workQueueName","record_id"])
[        0.0481 ms]  Main | Adding workqueue_doAddRecord(["workQueueName","record_id"])
[        0.0465 ms]  Main | Adding workqueue_doGetCount(["workQueueName"])
[        0.0496 ms]  Main | Adding workqueue_doGetOnePending(["workQueueName"])
[        0.0468 ms]  Main | Adding workqueue_doGetWorkqueueList([])
[        0.0528 ms]  Main | Adding workqueue_doWaitForPending(["workQueueName"])
[        0.0665 ms]  Main | Adding calls for utility
[        0.0479 ms]  Main | Adding utility_doGetGuid([])
[        0.0478 ms]  Main | Adding utility_doGetServerStamp(["user"])
[        0.0499 ms]  Main | Adding utility_doGetNextSequential(["user","slug"])
[        0.0489 ms]  Main | Adding utility_doGetNextNewObject(["user","datasetName","collectionName"])
[        0.0665 ms]  Main | Adding calls for auth
[        0.0523 ms]  Main | Adding auth_doAuthUser(["user","username","passwordHash","system"])
[        0.0496 ms]  Main | Adding auth_doTestUser(["user"])
[         0.049 ms]  Main | Adding auth_doChangePassword(["user","username","newPasswordHash"])
[         0.049 ms]  Main | Adding auth_doCreateUser(["user","username"])
[        0.0493 ms]  Main | Adding auth_doUpdateUser(["user","username","newData"])
[        0.0489 ms]  Main | Adding auth_doUpdateUserRoles(["user","username","system","rolesAdd","rolesRemove"])
[        0.0667 ms]  Main | Adding calls for timeline
[        0.0489 ms]  Main | Adding timeline_doAddTimeline(["user","participant_id","category","subcategory","text","eventStamp","eventOffset","options"])
[        0.0493 ms]  Main | Adding timeline_doGetTimeline(["user","participant_id"])
[        0.0668 ms]  Main | Adding calls for table
[        0.0476 ms]  Main | Adding table_doSetTable(["user","tableName","jsonData"])
[        0.0484 ms]  Main | Adding table_doGetTable(["tableName"])
[        0.0476 ms]  Main | Adding table_doChangeTable(["user","tableName","columnName","changeType","newValue"])
[        0.0481 ms]  Main | Adding table_doListTables(["prefix","=","''"])
[        0.0684 ms]  Main | Adding calls for test
[        0.0553 ms]  Main | Adding test_doSimpleTest([])
[        0.0485 ms]  Main | Adding test_doShowUser(["user"])
[        0.4058 ms]  Main | Processing /Users/brian/Projects/EdgeTS/EdgeApiServer/src/../Web/css/*less (text/css) for /css/baseedgeweb.css
[        2.6377 ms]  Main | processPath text/css: Reading file: /Users/brian/Projects/EdgeTS/EdgeApiServer/Web/css/icons.simplelineicons.less for /css/baseedgeweb.css
[        0.2082 ms]  Main | Processing /Users/brian/Projects/EdgeTS/EdgeApiServer/src/../Web/css/*styl (text/css) for /css/edgeweb.css
[        0.5208 ms]  Main | processPath text/css: Reading file: /Users/brian/Projects/EdgeTS/EdgeApiServer/Web/css/gridboard.styl for /css/edgeweb.css
[        0.4306 ms]  Main | Processing /Users/brian/Projects/EdgeTS/EdgeApiServer/src/../Web/js/*coffee (text/javascript) for /js/combined.js
[        0.3674 ms]  Main | processPath text/javascript: Reading file: /Users/brian/Projects/EdgeTS/EdgeApiServer/Web/js/EdgeApiProvider.coffee for /js/combined.js
[        0.1626 ms]  Main | doCompileCoffeeFile Reading File:/Users/brian/Projects/EdgeTS/EdgeApiServer/Web/js/EdgeApiProvider.coffee
[        6.9877 ms]  Main | Local vendor path: /Users/brian/Projects/EdgeTS/EdgeApiServer/Web/vendor/
[        0.1326 ms]  Main | Mapped /Users/brian/Projects/EdgeTS/EdgeApiServer/Web/vendor/ace/ to url /ace
[        0.0701 ms]  Main | Mapped /Users/brian/Projects/EdgeTS/EdgeApiServer/Web/vendor/closure/ to url /closure
[        0.0612 ms]  Main | Mapped /Users/brian/Projects/EdgeTS/EdgeApiServer/Web/vendor/closure/ to url /closure-library/closure
[        0.6461 ms]  Main | Local ninja path:/Users/brian/Projects/EdgeTS/EdgeApiServer/node_modules/NinjaCommon/ninja/
[        0.0599 ms]  Main | Mapped /Users/brian/Projects/EdgeTS/EdgeApiServer/node_modules/NinjaCommon/ninja/ to url /ninja
[        0.0892 ms]  Main | Local fonts path:/Users/brian/Projects/EdgeTS/EdgeApiServer/Web/fonts/
[        0.0575 ms]  Main | Mapped /Users/brian/Projects/EdgeTS/EdgeApiServer/Web/fonts/,/Users/brian/Projects/EdgeTS/EdgeApiServer/node_modules/NinjaCommon/ninja//fonts/ to url /fonts
[        0.0816 ms]  Main | Local images path:/Users/brian/Projects/EdgeTS/EdgeApiServer/Web/images/
[        0.0551 ms]  Main | Mapped /Users/brian/Projects/EdgeTS/EdgeApiServer/Web/images/,/Users/brian/Projects/EdgeTS/EdgeApiServer/node_modules/NinjaCommon/ninja//images/,/Users/brian/EdgeData/images/ to url /images
[        0.0797 ms]  Main | Local vendor path:/Users/brian/Projects/EdgeTS/EdgeApiServer/Web/vendor/
[        0.0583 ms]  Main | Mapped /Users/brian/Projects/EdgeTS/EdgeApiServer/Web/vendor/,/Users/brian/Projects/EdgeTS/EdgeApiServer/node_modules/NinjaCommon/ninja//vendor/,/Users/brian/Projects/EdgeTS/EdgeApiServer/Web/vendor/ to url /vendor
Listening on port 8001
[         0.282 ms]  Main | Creating ApiSocketServer, Socket.io listener enabled
Listening on port 8443
[       30.7689 ms]  Main | ApiSocketServer onInit Connecting to cache
[        1.6361 ms]  Main | ProviderStats onInit: No time series database.   Unable to initialize.false
StatusUpdate Connected
[         0.859 ms]  Main | processPath text/css: Reading file: /Users/brian/Projects/EdgeTS/EdgeApiServer/Web/css/mixins.less for /css/baseedgeweb.css
[        0.1764 ms]  Main | processPath text/css: Reading file: /Users/brian/Projects/EdgeTS/EdgeApiServer/Web/css/navigation.less for /css/baseedgeweb.css
[        0.1184 ms]  Main | processPath text/css: Reading file: /Users/brian/Projects/EdgeTS/EdgeApiServer/Web/css/oneui.utilities.less for /css/baseedgeweb.css
[        0.1138 ms]  Main | processPath text/css: Reading file: /Users/brian/Projects/EdgeTS/EdgeApiServer/Web/css/print.less for /css/baseedgeweb.css
[        0.1148 ms]  Main | processPath text/css: Reading file: /Users/brian/Projects/EdgeTS/EdgeApiServer/Web/css/sidebar.less for /css/baseedgeweb.css
[         0.115 ms]  Main | processPath text/css: Reading file: /Users/brian/Projects/EdgeTS/EdgeApiServer/Web/css/variables.less for /css/baseedgeweb.css
[       49.1602 ms]  Main | processPath text/css: Reading file: /Users/brian/Projects/EdgeTS/EdgeApiServer/Web/css/icons.fontawesome.styl for /css/edgeweb.css
[       58.9555 ms]  Main | processPath text/javascript: Reading file: /Users/brian/Projects/EdgeTS/EdgeApiServer/Web/js/HandlebarsHelper.coffee for /js/combined.js
[        0.1734 ms]  Main | doCompileCoffeeFile Reading File:/Users/brian/Projects/EdgeTS/EdgeApiServer/Web/js/HandlebarsHelper.coffee
[      108.6942 ms]  Main | processPath text/css: Reading file: /Users/brian/Projects/EdgeTS/EdgeApiServer/Web/css/main.styl for /css/edgeweb.css
[        5.4787 ms]  Main | processPath text/javascript: Reading file: /Users/brian/Projects/EdgeTS/EdgeApiServer/Web/js/LocallyCachedTable.coffee for /js/combined.js
[        0.0894 ms]  Main | doCompileCoffeeFile Reading File:/Users/brian/Projects/EdgeTS/EdgeApiServer/Web/js/LocallyCachedTable.coffee
[      127.3353 ms]  Main | processPath text/javascript: Reading file: /Users/brian/Projects/EdgeTS/EdgeApiServer/Web/js/SocketConnection.coffee for /js/combined.js
[        0.1023 ms]  Main | doCompileCoffeeFile Reading File:/Users/brian/Projects/EdgeTS/EdgeApiServer/Web/js/SocketConnection.coffee
[       84.9302 ms]  Main | processPath text/css: Reading file: /Users/brian/Projects/EdgeTS/EdgeApiServer/Web/css/mainmenu.styl for /css/edgeweb.css
[       23.7152 ms]  Main | processPath text/javascript: Reading file: /Users/brian/Projects/EdgeTS/EdgeApiServer/Web/js/startupEvents.coffee for /js/combined.js
[        0.1272 ms]  Main | doCompileCoffeeFile Reading File:/Users/brian/Projects/EdgeTS/EdgeApiServer/Web/js/startupEvents.coffee
[        4.7126 ms]  Main | processPath text/css: Reading file: /Users/brian/Projects/EdgeTS/EdgeApiServer/Web/css/query_tool.styl for /css/edgeweb.css
[        2.5648 ms]  Main | processPath text/javascript: Reading file: /Users/brian/Projects/EdgeTS/EdgeApiServer/Web/js/TableBase.coffee for /js/combined.js
[        0.1087 ms]  Main | doCompileCoffeeFile Reading File:/Users/brian/Projects/EdgeTS/EdgeApiServer/Web/js/TableBase.coffee
[       11.1482 ms]  Main | processPath text/css: Reading file: /Users/brian/Projects/EdgeTS/EdgeApiServer/Web/css/windowManager.styl for /css/edgeweb.css
[       22.1888 ms]  Main | Processing ../Web/common/*.coffee (text/javascript) for /js/combined.js
[        0.3743 ms]  Main | Processing /Users/brian/Projects/EdgeTS/EdgeApiServer/Web/common/*.coffee (text/javascript) for /js/combined.js
[      103.0913 ms]  Main | setupSocketServer new incoming connection
CREATE SOCKET= ApiSocketUser {
  isVerbose: true,
  dynamicResolveList: {},
  socket: Socket {
    nsp: Namespace {
      name: '/',
      server: [Server],
      sockets: [Object],
      connected: [Object],
      fns: [],
      ids: 0,
      rooms: [],
      flags: {},
      adapter: [Adapter],
      _events: [Object: null prototype],
      _eventsCount: 1
    },
    server: Server {
      nsps: [Object],
      parentNsps: Map {},
      _path: '/socket.io',
      _serveClient: true,
      parser: [Object],
      encoder: Encoder {},
      _adapter: [Function: Adapter],
      _origins: '*:*',
      sockets: [Namespace],
      eio: [Server],
      httpServer: [Server],
      engine: [Server]
    },
    adapter: Adapter {
      nsp: [Namespace],
      rooms: [Object],
      sids: [Object],
      encoder: Encoder {}
    },
    id: '1QgGidOR5UyvVmhpAAAA',
    client: Client {
      server: [Server],
      conn: [Socket],
      encoder: Encoder {},
      decoder: [Decoder],
      id: '1QgGidOR5UyvVmhpAAAA',
      request: [IncomingMessage],
      onclose: [Function: bound ],
      ondata: [Function: bound ],
      onerror: [Function: bound ],
      ondecoded: [Function: bound ],
      sockets: [Object],
      nsps: [Object],
      connectBuffer: []
    },
    conn: Socket {
      id: '1QgGidOR5UyvVmhpAAAA',
      server: [Server],
      upgrading: false,
      upgraded: false,
      readyState: 'open',
      writeBuffer: [],
      packetsFn: [],
      sentCallbackFn: [],
      cleanupFn: [Array],
      request: [IncomingMessage],
      remoteAddress: '::1',
      checkIntervalTimer: null,
      upgradeTimeoutTimer: null,
      pingTimeoutTimer: Timeout {
        _idleTimeout: 30000,
        _idlePrev: [TimersList],
        _idleNext: [TimersList],
        _idleStart: 3764,
        _onTimeout: [Function],
        _timerArgs: undefined,
        _repeat: null,
        _destroyed: false,
        [Symbol(refed)]: true,
        [Symbol(asyncId)]: 630,
        [Symbol(triggerId)]: 626
      },
      transport: [XHR],
      _events: [Object: null prototype],
      _eventsCount: 3
    },
    rooms: {},
    acks: {},
    connected: true,
    disconnected: false,
    handshake: {
      headers: [Object],
      time: 'Wed Jul 17 2019 19:46:42 GMT-0400 (Eastern Daylight Time)',
      address: '::1',
      xdomain: false,
      secure: false,
      issued: 1563407202409,
      url: '/socket.io/?EIO=3&transport=polling&t=Mm2LBXV',
      query: [Object]
    },
    fns: [],
    flags: {},
    _rooms: [],
    myConnectionID: 1,
    _events: [Object: null prototype] {
      cmd: [Function: bound onIncomingCommandRequest],
      'api-list': [Function: bound onReceiveApiList],
      'cmd-reply': [Function: bound onIncomingCommandReply]
    },
    _eventsCount: 3
  },
  registeredList: [],
  commandCallback: {},
  dynamicApiCallsList: {},
  dynamicCallPending: [],
  dynamicRejectList: [],
  timezoneOffset: 0,
  myConnectionID: 1,
  request: IncomingMessage {
    _readableState: ReadableState {
      objectMode: false,
      highWaterMark: 16384,
      buffer: BufferList { head: null, tail: null, length: 0 },
      length: 0,
      pipes: null,
      pipesCount: 0,
      flowing: true,
      ended: true,
      endEmitted: false,
      reading: false,
      sync: true,
      needReadable: false,
      emittedReadable: true,
      readableListening: false,
      resumeScheduled: true,
      paused: false,
      emitClose: true,
      autoDestroy: false,
      destroyed: false,
      defaultEncoding: 'utf8',
      awaitDrain: 0,
      readingMore: true,
      decoder: null,
      encoding: null
    },
    readable: true,
    _events: [Object: null prototype] {
      end: [Function: resetHeadersTimeoutOnReqEnd]
    },
    _eventsCount: 1,
    _maxListeners: undefined,
    socket: Socket {
      connecting: false,
      _hadError: false,
      _parent: null,
      _host: null,
      _readableState: [ReadableState],
      readable: true,
      _events: [Object: null prototype],
      _eventsCount: 8,
      _maxListeners: undefined,
      _writableState: [WritableState],
      writable: true,
      allowHalfOpen: true,
      _sockname: null,
      _pendingData: null,
      _pendingEncoding: '',
      server: [Server],
      _server: [Server],
      timeout: 5000,
      parser: [HTTPParser],
      on: [Function: socketListenerWrap],
      addListener: [Function: socketListenerWrap],
      prependListener: [Function: socketListenerWrap],
      _paused: false,
      _httpMessage: null,
      _peername: [Object],
      [Symbol(asyncId)]: 624,
      [Symbol(kHandle)]: [TCP],
      [Symbol(lastWriteQueueSize)]: 0,
      [Symbol(timeout)]: Timeout {
        _idleTimeout: 5000,
        _idlePrev: [TimersList],
        _idleNext: [Timeout],
        _idleStart: 3767,
        _onTimeout: [Function: bound ],
        _timerArgs: undefined,
        _repeat: null,
        _destroyed: false,
        [Symbol(refed)]: false,
        [Symbol(asyncId)]: 636,
        [Symbol(triggerId)]: 631
      },
      [Symbol(kBytesRead)]: 0,
      [Symbol(kBytesWritten)]: 0
    },
    connection: Socket {
      connecting: false,
      _hadError: false,
      _parent: null,
      _host: null,
      _readableState: [ReadableState],
      readable: true,
      _events: [Object: null prototype],
      _eventsCount: 8,
      _maxListeners: undefined,
      _writableState: [WritableState],
      writable: true,
      allowHalfOpen: true,
      _sockname: null,
      _pendingData: null,
      _pendingEncoding: '',
      server: [Server],
      _server: [Server],
      timeout: 5000,
      parser: [HTTPParser],
      on: [Function: socketListenerWrap],
      addListener: [Function: socketListenerWrap],
      prependListener: [Function: socketListenerWrap],
      _paused: false,
      _httpMessage: null,
      _peername: [Object],
      [Symbol(asyncId)]: 624,
      [Symbol(kHandle)]: [TCP],
      [Symbol(lastWriteQueueSize)]: 0,
      [Symbol(timeout)]: Timeout {
        _idleTimeout: 5000,
        _idlePrev: [TimersList],
        _idleNext: [Timeout],
        _idleStart: 3767,
        _onTimeout: [Function: bound ],
        _timerArgs: undefined,
        _repeat: null,
        _destroyed: false,
        [Symbol(refed)]: false,
        [Symbol(asyncId)]: 636,
        [Symbol(triggerId)]: 631
      },
      [Symbol(kBytesRead)]: 0,
      [Symbol(kBytesWritten)]: 0
    },
    httpVersionMajor: 1,
    httpVersionMinor: 1,
    httpVersion: '1.1',
    complete: true,
    headers: {
      host: 'localhost:8001',
      connection: 'keep-alive',
      accept: '*/*',
      dnt: '1',
      'user-agent': 'Mozilla/5.0 (Macintosh; Intel Mac OS X 10_14_5) AppleWebKit/537.36 (KHTML, like Gecko) Chrome/75.0.3770.100 Safari/537.36',
      referer: 'http://localhost:8001/TestAuth',
      'accept-encoding': 'gzip, deflate, br',
      'accept-language': 'en-US,en;q=0.9',
      cookie: 'validAuth=1562249894782; koa:sess=eyJ3ZWJVc2VyIjp7ImlzVmVyYm9zZSI6dHJ1ZSwiZHluYW1pY1Jlc29sdmVMaXN0Ijp7fSwic29ja2V0IjpudWxsLCJyZWdpc3RlcmVkTGlzdCI6W10sImNvbW1hbmRDYWxsYmFjayI6e30sImR5bmFtaWNBcGlDYWxsc0xpc3QiOnt9LCJkeW5hbWljQ2FsbFBlbmRpbmciOltdLCJkeW5hbWljUmVqZWN0TGlzdCI6W10sInRpbWV6b25lT2Zmc2V0IjowLCJteUNvbm5lY3Rpb25JRCI6MSwibXlOYW1lIjoxLCJyZWMiOm51bGwsImF1dGhBdHRlbXB0cyI6MCwiaXBBZGRyZXNzIjoiOjoxIn0sImFwcE5hbWUiOiJUZXN0QXV0aCIsIl9leHBpcmUiOjE1NjM0OTM1NTY0MTMsIl9tYXhBZ2UiOjg2NDAwMDAwfQ==; koa:sess.sig=umMTu1EfAFb0ppadQfstqQwmlrs; io=Dir0Q3gjJJxLRyuEAAAA'
    },
    rawHeaders: [
      'Host',
      'localhost:8001',
      'Connection',
      'keep-alive',
      'Accept',
      '*/*',
      'DNT',
      '1',
      'User-Agent',
      'Mozilla/5.0 (Macintosh; Intel Mac OS X 10_14_5) AppleWebKit/537.36 (KHTML, like Gecko) Chrome/75.0.3770.100 Safari/537.36',
      'Referer',
      'http://localhost:8001/TestAuth',
      'Accept-Encoding',
      'gzip, deflate, br',
      'Accept-Language',
      'en-US,en;q=0.9',
      'Cookie',
      'validAuth=1562249894782; koa:sess=eyJ3ZWJVc2VyIjp7ImlzVmVyYm9zZSI6dHJ1ZSwiZHluYW1pY1Jlc29sdmVMaXN0Ijp7fSwic29ja2V0IjpudWxsLCJyZWdpc3RlcmVkTGlzdCI6W10sImNvbW1hbmRDYWxsYmFjayI6e30sImR5bmFtaWNBcGlDYWxsc0xpc3QiOnt9LCJkeW5hbWljQ2FsbFBlbmRpbmciOltdLCJkeW5hbWljUmVqZWN0TGlzdCI6W10sInRpbWV6b25lT2Zmc2V0IjowLCJteUNvbm5lY3Rpb25JRCI6MSwibXlOYW1lIjoxLCJyZWMiOm51bGwsImF1dGhBdHRlbXB0cyI6MCwiaXBBZGRyZXNzIjoiOjoxIn0sImFwcE5hbWUiOiJUZXN0QXV0aCIsIl9leHBpcmUiOjE1NjM0OTM1NTY0MTMsIl9tYXhBZ2UiOjg2NDAwMDAwfQ==; koa:sess.sig=umMTu1EfAFb0ppadQfstqQwmlrs; io=Dir0Q3gjJJxLRyuEAAAA'
    ],
    trailers: {},
    rawTrailers: [],
    aborted: false,
    upgrade: false,
    url: '/socket.io/?EIO=3&transport=polling&t=Mm2LBXV',
    method: 'GET',
    statusCode: null,
    statusMessage: null,
    client: Socket {
      connecting: false,
      _hadError: false,
      _parent: null,
      _host: null,
      _readableState: [ReadableState],
      readable: true,
      _events: [Object: null prototype],
      _eventsCount: 8,
      _maxListeners: undefined,
      _writableState: [WritableState],
      writable: true,
      allowHalfOpen: true,
      _sockname: null,
      _pendingData: null,
      _pendingEncoding: '',
      server: [Server],
      _server: [Server],
      timeout: 5000,
      parser: [HTTPParser],
      on: [Function: socketListenerWrap],
      addListener: [Function: socketListenerWrap],
      prependListener: [Function: socketListenerWrap],
      _paused: false,
      _httpMessage: null,
      _peername: [Object],
      [Symbol(asyncId)]: 624,
      [Symbol(kHandle)]: [TCP],
      [Symbol(lastWriteQueueSize)]: 0,
      [Symbol(timeout)]: Timeout {
        _idleTimeout: 5000,
        _idlePrev: [TimersList],
        _idleNext: [Timeout],
        _idleStart: 3767,
        _onTimeout: [Function: bound ],
        _timerArgs: undefined,
        _repeat: null,
        _destroyed: false,
        [Symbol(refed)]: false,
        [Symbol(asyncId)]: 636,
        [Symbol(triggerId)]: 631
      },
      [Symbol(kBytesRead)]: 0,
      [Symbol(kBytesWritten)]: 0
    },
    _consuming: false,
    _dumped: true,
    _query: [Object: null prototype] {
      EIO: '3',
      transport: 'polling',
      t: 'Mm2LBXV'
    },
    res: ServerResponse {
      _events: [Object: null prototype],
      _eventsCount: 1,
      _maxListeners: undefined,
      outputData: [],
      outputSize: 0,
      writable: true,
      _last: false,
      chunkedEncoding: false,
      shouldKeepAlive: true,
      useChunkedEncodingByDefault: true,
      sendDate: true,
      _removedConnection: false,
      _removedContLen: false,
      _removedTE: false,
      _contentLength: null,
      _hasBody: true,
      _trailer: '',
      finished: true,
      _headerSent: true,
      socket: null,
      connection: null,
      _header: 'HTTP/1.1 200 OK\r\n' +
        'Content-Type: text/plain; charset=UTF-8\r\n' +
        'Content-Length: 103\r\n' +
        'Access-Control-Allow-Origin: *\r\n' +
        'Set-Cookie: io=1QgGidOR5UyvVmhpAAAA; Path=/; HttpOnly\r\n' +
        'Date: Wed, 17 Jul 2019 23:46:42 GMT\r\n' +
        'Connection: keep-alive\r\n' +
        '\r\n',
      _onPendingData: [Function: bound updateOutgoingData],
      _sent100: false,
      _expect_continue: false,
      statusMessage: 'OK',
      statusCode: 200,
      [Symbol(isCorked)]: false,
      [Symbol(outHeadersKey)]: null
    },
    cleanup: [Function: cleanup]
  },
  myName: 1,
  rec: null,
  authAttempts: 0,
  ipAddress: undefined,
  userAgent: 'Mozilla/5.0 (Macintosh; Intel Mac OS X 10_14_5) AppleWebKit/537.36 (KHTML, like Gecko) Chrome/75.0.3770.100 Safari/537.36',
  cookie: 'validAuth=1562249894782; koa:sess=eyJ3ZWJVc2VyIjp7ImlzVmVyYm9zZSI6dHJ1ZSwiZHluYW1pY1Jlc29sdmVMaXN0Ijp7fSwic29ja2V0IjpudWxsLCJyZWdpc3RlcmVkTGlzdCI6W10sImNvbW1hbmRDYWxsYmFjayI6e30sImR5bmFtaWNBcGlDYWxsc0xpc3QiOnt9LCJkeW5hbWljQ2FsbFBlbmRpbmciOltdLCJkeW5hbWljUmVqZWN0TGlzdCI6W10sInRpbWV6b25lT2Zmc2V0IjowLCJteUNvbm5lY3Rpb25JRCI6MSwibXlOYW1lIjoxLCJyZWMiOm51bGwsImF1dGhBdHRlbXB0cyI6MCwiaXBBZGRyZXNzIjoiOjoxIn0sImFwcE5hbWUiOiJUZXN0QXV0aCIsIl9leHBpcmUiOjE1NjM0OTM1NTY0MTMsIl9tYXhBZ2UiOjg2NDAwMDAwfQ==; koa:sess.sig=umMTu1EfAFb0ppadQfstqQwmlrs; io=Dir0Q3gjJJxLRyuEAAAA',
  location: {},
  sendDelayedQueue: [],
  sendDelayedTimer: null,
  streamingListNumber: null,
  configSendFlat: false,
  subscriptionList: [],
  wantStatusUpdate: false,
  isAdmin: false
}
Error: User(edgeApi) already exists
    at Object.<anonymous> (/Users/brian/Projects/EdgeTS/EdgeApiServer/src/utility/AddServiceUser.ts:33:24)
    at Generator.next (<anonymous>:null:null)
    at fulfilled (/Users/brian/Projects/EdgeTS/EdgeApiServer/node_modules/tslib/tslib.js:101:13)
    at processTicksAndRejections (internal/process/task_queues.js:85:9)

[       4.3667 sec]  Main | StatusUpdateClient sendStatus: No time series database.  Can't initialize.
[       26.8651 ms]  Main | cacheSetMembers wq_known_queues
[       5.0392 sec]  Main | cacheSetMembers wq_known_queues
[       5.0436 sec]  Main | cacheSetMembers wq_known_queues
<null>   in    8,001 ms |            |                  | ApiSocketServer
[       5.0501 sec]  Main | cacheSetMembers wq_known_queues
[       5.0558 sec]  Main | cacheSetMembers wq_known_queues
[       5.0449 sec]  Main | cacheSetMembers wq_known_queues
<null>   in   16,006 ms |            |                  | ApiSocketServer
[       5.0475 sec]  Main | cacheSetMembers wq_known_queues
[       5.0489 sec]  Main | cacheSetMembers wq_known_queues
[       5.0425 sec]  Main | cacheSetMembers wq_known_queues
[       5.0392 sec]  Main | cacheSetMembers wq_known_queues
[       5.0424 sec]  Main | cacheSetMembers wq_known_queues
[       5.0333 sec]  Main | cacheSetMembers wq_known_queues
<null>   in   30,004 ms |            |                  | ApiSocketServer
[       5.0355 sec]  Main | cacheSetMembers wq_known_queues
[       5.0462 sec]  Main | cacheSetMembers wq_known_queues
[       5.0401 sec]  Main | cacheSetMembers wq_known_queues
[       5.0379 sec]  Main | cacheSetMembers wq_known_queues
[       5.0464 sec]  Main | cacheSetMembers wq_known_queues
[       5.0799 sec]  Main | cacheSetMembers wq_known_queues
<null>   in   30,005 ms |            |                  | ApiSocketServer
[       5.0484 sec]  Main | cacheSetMembers wq_known_queues
[       5.0505 sec]  Main | cacheSetMembers wq_known_queues
[       5.0423 sec]  Main | cacheSetMembers wq_known_queues
[       5.0493 sec]  Main | cacheSetMembers wq_known_queues
[       5.0663 sec]  Main | cacheSetMembers wq_known_queues
[       5.0389 sec]  Main | cacheSetMembers wq_known_queues
<null>   in   30,003 ms |            |                  | ApiSocketServer
[       5.0377 sec]  Main | cacheSetMembers wq_known_queues
[       5.0453 sec]  Main | cacheSetMembers wq_known_queues
[       5.0423 sec]  Main | cacheSetMembers wq_known_queues
[       5.0374 sec]  Main | cacheSetMembers wq_known_queues
[       5.0443 sec]  Main | cacheSetMembers wq_known_queues
[       5.0445 sec]  Main | cacheSetMembers wq_known_queues
<null>   in   30,001 ms |            |                  | ApiSocketServer
[       5.0395 sec]  Main | cacheSetMembers wq_known_queues
[        5.055 sec]  Main | cacheSetMembers wq_known_queues
[       5.0496 sec]  Main | cacheSetMembers wq_known_queues
[       5.0498 sec]  Main | cacheSetMembers wq_known_queues
[       5.0731 sec]  Main | cacheSetMembers wq_known_queues
[       5.0491 sec]  Main | cacheSetMembers wq_known_queues
<null>   in   30,005 ms |            |                  | ApiSocketServer
[       5.0513 sec]  Main | cacheSetMembers wq_known_queues
[        5.042 sec]  Main | cacheSetMembers wq_known_queues
[       5.0553 sec]  Main | cacheSetMembers wq_known_queues
[       5.0411 sec]  Main | cacheSetMembers wq_known_queues
[       5.0389 sec]  Main | cacheSetMembers wq_known_queues
[       5.0516 sec]  Main | cacheSetMembers wq_known_queues
<null>   in   30,000 ms |            |                  | ApiSocketServer
[        5.046 sec]  Main | cacheSetMembers wq_known_queues
[       5.0479 sec]  Main | cacheSetMembers wq_known_queues
[       5.0432 sec]  Main | cacheSetMembers wq_known_queues
[       5.0776 sec]  Main | cacheSetMembers wq_known_queues
[       5.0462 sec]  Main | cacheSetMembers wq_known_queues
[       5.0416 sec]  Main | cacheSetMembers wq_known_queues
<null>   in   30,000 ms |            |                  | ApiSocketServer
[       5.0353 sec]  Main | cacheSetMembers wq_known_queues
[       5.0456 sec]  Main | cacheSetMembers wq_known_queues
[       5.0503 sec]  Main | cacheSetMembers wq_known_queues
[       5.0426 sec]  Main | cacheSetMembers wq_known_queues
[       5.0591 sec]  Main | cacheSetMembers wq_known_queues
[        5.046 sec]  Main | cacheSetMembers wq_known_queues
<null>   in   30,000 ms |            |                  | ApiSocketServer
[       5.0547 sec]  Main | cacheSetMembers wq_known_queues
[       5.0459 sec]  Main | cacheSetMembers wq_known_queues
[       5.0647 sec]  Main | cacheSetMembers wq_known_queues
[       5.0376 sec]  Main | cacheSetMembers wq_known_queues
[       5.0433 sec]  Main | cacheSetMembers wq_known_queues
[       5.0426 sec]  Main | cacheSetMembers wq_known_queues
<null>   in   30,005 ms |            |                  | ApiSocketServer
[       5.0436 sec]  Main | cacheSetMembers wq_known_queues
[       5.0512 sec]  Main | cacheSetMembers wq_known_queues
[       5.0396 sec]  Main | cacheSetMembers wq_known_queues
[       5.0754 sec]  Main | cacheSetMembers wq_known_queues
[       5.0433 sec]  Main | cacheSetMembers wq_known_queues
[       5.0461 sec]  Main | cacheSetMembers wq_known_queues
<null>   in   30,005 ms |            |                  | ApiSocketServer
[       5.0333 sec]  Main | cacheSetMembers wq_known_queues
[       5.0442 sec]  Main | cacheSetMembers wq_known_queues
[       5.0439 sec]  Main | cacheSetMembers wq_known_queues
[       5.0413 sec]  Main | cacheSetMembers wq_known_queues
[       5.0498 sec]  Main | cacheSetMembers wq_known_queues
[       5.0462 sec]  Main | cacheSetMembers wq_known_queues
<null>   in   30,003 ms |            |                  | ApiSocketServer
[       5.0466 sec]  Main | cacheSetMembers wq_known_queues
[       5.0412 sec]  Main | cacheSetMembers wq_known_queues
[       5.0471 sec]  Main | cacheSetMembers wq_known_queues
[       5.0497 sec]  Main | cacheSetMembers wq_known_queues
[       5.0461 sec]  Main | cacheSetMembers wq_known_queues
[       5.1174 sec]  Main | cacheSetMembers wq_known_queues
<null>   in   30,002 ms |            |                  | ApiSocketServer
[       5.0437 sec]  Main | cacheSetMembers wq_known_queues
[       5.0461 sec]  Main | cacheSetMembers wq_known_queues
